…
# filter

``` r
filter(.data = penguins, 
       sex == "female" ) #filter keeps every TRUE
```

    ## # A tibble: 165 × 8
    ##    species island    bill_length_mm bill_depth_mm flipper_length_mm body_mass_g
    ##    <fct>   <fct>              <dbl>         <dbl>             <int>       <int>
    ##  1 Adelie  Torgersen           39.5          17.4               186        3800
    ##  2 Adelie  Torgersen           40.3          18                 195        3250
    ##  3 Adelie  Torgersen           36.7          19.3               193        3450
    ##  4 Adelie  Torgersen           38.9          17.8               181        3625
    ##  5 Adelie  Torgersen           41.1          17.6               182        3200
    ##  6 Adelie  Torgersen           36.6          17.8               185        3700
    ##  7 Adelie  Torgersen           38.7          19                 195        3450
    ##  8 Adelie  Torgersen           34.4          18.4               184        3325
    ##  9 Adelie  Biscoe              37.8          18.3               174        3400
    ## 10 Adelie  Biscoe              35.9          19.2               189        3800
    ## # ℹ 155 more rows
    ## # ℹ 2 more variables: sex <fct>, year <int>
…
# Think, pair, share

Use filter and boolean logical to show: \#always need quotes for calling
a character

1.  Penguins that were collected in *either* 2008 *or* 2009

``` r
filter(.data = penguins, year == 2008 | year == 2009)
```

    ## # A tibble: 234 × 8
    ##    species island bill_length_mm bill_depth_mm flipper_length_mm body_mass_g
    ##    <fct>   <fct>           <dbl>         <dbl>             <int>       <int>
    ##  1 Adelie  Biscoe           39.6          17.7               186        3500
    ##  2 Adelie  Biscoe           40.1          18.9               188        4300
    ##  3 Adelie  Biscoe           35            17.9               190        3450
    ##  4 Adelie  Biscoe           42            19.5               200        4050
    ##  5 Adelie  Biscoe           34.5          18.1               187        2900
    ##  6 Adelie  Biscoe           41.4          18.6               191        3700
    ##  7 Adelie  Biscoe           39            17.5               186        3550
    ##  8 Adelie  Biscoe           40.6          18.8               193        3800
    ##  9 Adelie  Biscoe           36.5          16.6               181        2850
    ## 10 Adelie  Biscoe           37.6          19.1               194        3750
    ## # ℹ 224 more rows
    ## # ℹ 2 more variables: sex <fct>, year <int>

2.  Penguins that *are not* from the island Dream

``` r
filter(.data = penguins, island != "Dream")
```

    ## # A tibble: 220 × 8
    ##    species island    bill_length_mm bill_depth_mm flipper_length_mm body_mass_g
    ##    <fct>   <fct>              <dbl>         <dbl>             <int>       <int>
    ##  1 Adelie  Torgersen           39.1          18.7               181        3750
    ##  2 Adelie  Torgersen           39.5          17.4               186        3800
    ##  3 Adelie  Torgersen           40.3          18                 195        3250
    ##  4 Adelie  Torgersen           NA            NA                  NA          NA
    ##  5 Adelie  Torgersen           36.7          19.3               193        3450
    ##  6 Adelie  Torgersen           39.3          20.6               190        3650
    ##  7 Adelie  Torgersen           38.9          17.8               181        3625
    ##  8 Adelie  Torgersen           39.2          19.6               195        4675
    ##  9 Adelie  Torgersen           34.1          18.1               193        3475
    ## 10 Adelie  Torgersen           42            20.2               190        4250
    ## # ℹ 210 more rows
    ## # ℹ 2 more variables: sex <fct>, year <int>

3.  Penguins in the species Adelie and Gentoo

``` r
filter(.data = penguins, species %in% c("Adelie","Gentoo"))
```

    ## # A tibble: 276 × 8
    ##    species island    bill_length_mm bill_depth_mm flipper_length_mm body_mass_g
    ##    <fct>   <fct>              <dbl>         <dbl>             <int>       <int>
    ##  1 Adelie  Torgersen           39.1          18.7               181        3750
    ##  2 Adelie  Torgersen           39.5          17.4               186        3800
    ##  3 Adelie  Torgersen           40.3          18                 195        3250
    ##  4 Adelie  Torgersen           NA            NA                  NA          NA
    ##  5 Adelie  Torgersen           36.7          19.3               193        3450
    ##  6 Adelie  Torgersen           39.3          20.6               190        3650
    ##  7 Adelie  Torgersen           38.9          17.8               181        3625
    ##  8 Adelie  Torgersen           39.2          19.6               195        4675
    ##  9 Adelie  Torgersen           34.1          18.1               193        3475
    ## 10 Adelie  Torgersen           42            20.2               190        4250
    ## # ℹ 266 more rows
    ## # ℹ 2 more variables: sex <fct>, year <int>
…
# %\>%

Filter only female penguins and add a new column that calculates the log
body mass  
When you use %\>% the dataframe carries over so you don’t need to write
it out anymore \* pipe and then new line, pipe and then new line,
everything is connected

``` r
penguins %>% # use penguin dataframe
  filter(sex == "female") %>% #select females
  mutate(log_mass = log(body_mass_g)) #calculate log biomass
```

    ## # A tibble: 165 × 9
    ##    species island    bill_length_mm bill_depth_mm flipper_length_mm body_mass_g
    ##    <fct>   <fct>              <dbl>         <dbl>             <int>       <int>
    ##  1 Adelie  Torgersen           39.5          17.4               186        3800
    ##  2 Adelie  Torgersen           40.3          18                 195        3250
    ##  3 Adelie  Torgersen           36.7          19.3               193        3450
    ##  4 Adelie  Torgersen           38.9          17.8               181        3625
    ##  5 Adelie  Torgersen           41.1          17.6               182        3200
    ##  6 Adelie  Torgersen           36.6          17.8               185        3700
    ##  7 Adelie  Torgersen           38.7          19                 195        3450
    ##  8 Adelie  Torgersen           34.4          18.4               184        3325
    ##  9 Adelie  Biscoe              37.8          18.3               174        3400
    ## 10 Adelie  Biscoe              35.9          19.2               189        3800
    ## # ℹ 155 more rows
    ## # ℹ 3 more variables: sex <fct>, year <int>, log_mass <dbl>
…
# remove NAs

drop_na() - drops rows with NAs from a specific column

drop all the rows that are missing data on sex

``` r
penguins %>%
  drop_na(sex) #<<
```

    ## # A tibble: 333 × 8
    ##    species island    bill_length_mm bill_depth_mm flipper_length_mm body_mass_g
    ##    <fct>   <fct>              <dbl>         <dbl>             <int>       <int>
    ##  1 Adelie  Torgersen           39.1          18.7               181        3750
    ##  2 Adelie  Torgersen           39.5          17.4               186        3800
    ##  3 Adelie  Torgersen           40.3          18                 195        3250
    ##  4 Adelie  Torgersen           36.7          19.3               193        3450
    ##  5 Adelie  Torgersen           39.3          20.6               190        3650
    ##  6 Adelie  Torgersen           38.9          17.8               181        3625
    ##  7 Adelie  Torgersen           39.2          19.6               195        4675
    ##  8 Adelie  Torgersen           41.1          17.6               182        3200
    ##  9 Adelie  Torgersen           38.6          21.2               191        3800
    ## 10 Adelie  Torgersen           34.6          21.1               198        4400
    ## # ℹ 323 more rows
    ## # ℹ 2 more variables: sex <fct>, year <int>
…
