Week 10 Homework
…
Function 1 Example 1

Calculate pH variation of experimental locations in Wailupe from chemdata:

pH_wailupe_variation<-chemdata %>% 
  drop_na(pH) %>% # drop NAs for pH
  group_by(Site, Lat, Long) %>% 
  filter(Site == "W") %>% 
  summarise(pH_mean = mean(pH, na.rm = TRUE),
            pH_variance = var(pH, na.rm = TRUE)) %>% 
  mutate(variation = variation_equation(pH_variance, pH_mean))

pH_wailupe_variation

# A tibble: 25 × 6
# Groups:   Site, Lat [25]
   Site    Lat  Long pH_mean pH_variance   variation
   <chr> <dbl> <dbl>   <dbl>       <dbl>       <dbl>
 1 W      21.3 -158.    7.98   0.000800  0.0000126  
 2 W      21.3 -158.    8.03   0.0000405 0.000000627
 3 W      21.3 -158.    7.95   0.000882  0.0000139  
 4 W      21.3 -158.    8.00   0.00719   0.000112   
 5 W      21.3 -158.    8.01   0.00590   0.0000919  
 6 W      21.3 -158.    8.04   0.00683   0.000106   
 7 W      21.3 -158.    8.05   0.00758   0.000117   
 8 W      21.3 -158.    8.00   0.0115    0.000179   
 9 W      21.3 -158.    8.02   0.00691   0.000107   
10 W      21.3 -158.    8.02   0.00768   0.000119   
# ℹ 15 more rows
…
