Week 13
…
---
# read in the files

Next, read in the files using map instead of a for loop while retaining the filename as a column. 

``` r
data<-files %>%
  set_names()%>% # set's the id of each list to the file name
  map_df(read_csv,.id = "filename") # map everything to a dataframe and put the id in a column called filename

data
```

```
## # A tibble: 3,352 × 4
##    filename                             date                Temperature Salinity
##    <chr>                                <dttm>                    <dbl>    <dbl>
##  1 C:/Users/nyssa/Desktop/Repositories… 2021-01-15 08:24:40        23.3     34.8
##  2 C:/Users/nyssa/Desktop/Repositories… 2021-01-15 08:24:50        23.3     34.6
##  3 C:/Users/nyssa/Desktop/Repositories… 2021-01-15 08:25:00        23.3     34.9
##  4 C:/Users/nyssa/Desktop/Repositories… 2021-01-15 08:25:10        23.3     34.7
##  5 C:/Users/nyssa/Desktop/Repositories… 2021-01-15 08:25:20        23.3     34.5
##  6 C:/Users/nyssa/Desktop/Repositories… 2021-01-15 08:25:30        23.3     34.4
##  7 C:/Users/nyssa/Desktop/Repositories… 2021-01-15 08:25:40        23.3     34.3
##  8 C:/Users/nyssa/Desktop/Repositories… 2021-01-15 08:25:50        23.3     34.3
##  9 C:/Users/nyssa/Desktop/Repositories… 2021-01-15 08:26:00        23.3     34.2
## 10 C:/Users/nyssa/Desktop/Repositories… 2021-01-15 08:26:10        23.3     34.1
## # ℹ 3,342 more rows
```
…
---
# View results with broom

**augment** add residuals and predicted values to your original data and requires that you put both the model and data

``` r
# tidy residuals, etc

resid_fitted<-augment(Peng_mod)
resid_fitted
```

```
## # A tibble: 342 × 10
##    .rownames bill_length_mm bill_depth_mm species .fitted   .resid    .hat
##    <chr>              <dbl>         <dbl> <fct>     <dbl>    <dbl>   <dbl>
##  1 1                   39.1          18.7 Adelie     39.1  0.00553 0.00719
##  2 2                   39.5          17.4 Adelie     38.0  1.52    0.0107 
##  3 3                   40.3          18   Adelie     38.5  1.81    0.00716
##  4 5                   36.7          19.3 Adelie     39.6 -2.91    0.0107 
##  5 6                   39.3          20.6 Adelie     40.7 -1.42    0.0295 
##  6 7                   38.9          17.8 Adelie     38.3  0.577   0.00797
##  7 8                   39.2          19.6 Adelie     39.9 -0.666   0.0137 
##  8 9                   34.1          18.1 Adelie     38.6 -4.48    0.00690
##  9 10                  42            20.2 Adelie     40.4  1.62    0.0221 
## 10 11                  37.8          17.1 Adelie     37.7  0.0768  0.0136 
## # ℹ 332 more rows
## # ℹ 3 more variables: .sigma <dbl>, .cooksd <dbl>, .std.resid <dbl>
```
…
