Week 13 Lecture
…
ℹ Use `spec()` to retrieve the full column specification for this data.
ℹ Specify the column types or set `show_col_types = FALSE` to quiet this message.
Rows: 1004 Columns: 3
── Column specification ────────────────────────────────────────────────────────
Delimiter: ","
dbl  (2): Temperature, Salinity
dttm (1): date

ℹ Use `spec()` to retrieve the full column specification for this data.
ℹ Specify the column types or set `show_col_types = FALSE` to quiet this message.

data

# A tibble: 3,352 × 4
   filename                             date                Temperature Salinity
   <chr>                                <dttm>                    <dbl>    <dbl>
 1 /Users/haleypoppinga/Desktop/Reposi… 2021-01-15 08:24:40        23.3     34.8
 2 /Users/haleypoppinga/Desktop/Reposi… 2021-01-15 08:24:50        23.3     34.6
 3 /Users/haleypoppinga/Desktop/Reposi… 2021-01-15 08:25:00        23.3     34.9
 4 /Users/haleypoppinga/Desktop/Reposi… 2021-01-15 08:25:10        23.3     34.7
 5 /Users/haleypoppinga/Desktop/Reposi… 2021-01-15 08:25:20        23.3     34.5
 6 /Users/haleypoppinga/Desktop/Reposi… 2021-01-15 08:25:30        23.3     34.4
 7 /Users/haleypoppinga/Desktop/Reposi… 2021-01-15 08:25:40        23.3     34.3
 8 /Users/haleypoppinga/Desktop/Reposi… 2021-01-15 08:25:50        23.3     34.3
 9 /Users/haleypoppinga/Desktop/Reposi… 2021-01-15 08:26:00        23.3     34.2
10 /Users/haleypoppinga/Desktop/Reposi… 2021-01-15 08:26:10        23.3     34.1
# ℹ 3,342 more rows
…
