Week 13 Tidy Tuesday
…
This data shows the Sherlock Holmes stories and novels line-by-line. It has the full collection of Holmes texts organized by book and line number. The dataset is made available through the {sherlock} R package by Emil Hvitfeldt.

Clean the Data

# Load the dataset
holmes %>% 
  # Add line numbers to preserve narrative order
  mutate(line_num = row_number(), .by = "book") %>% 
  # Reorder columns
  select("book", "text", "line_num")

# A tibble: 65,958 × 3
   book               text                               line_num
   <chr>              <chr>                                 <int>
 1 A Study In Scarlet A STUDY IN SCARLET                        1
 2 A Study In Scarlet <NA>                                      2
 3 A Study In Scarlet Table of contents                         3
 4 A Study In Scarlet <NA>                                      4
 5 A Study In Scarlet Part I                                    5
 6 A Study In Scarlet Mr. Sherlock Holmes                       6
 7 A Study In Scarlet The Science Of Deduction                  7
 8 A Study In Scarlet The Lauriston Garden Mystery              8
 9 A Study In Scarlet What John Rance Had To Tell               9
10 A Study In Scarlet Our Advertisement Brings A Visitor       10
# ℹ 65,948 more rows
…
